lab5/waves.vcd
$date
    Jan  7, 2023  16:51:57
$end
$version
    TOOL:	xmsim(64)	21.09-s006
$end
$timescale
    1 ns
$end

$scope module top $end
$var reg       1 !    clk $end
$var reg       1 "    reset $end
$var reg       1 #    start $end

$scope module SP $end
$var wire      1 $    clk  $end
$var wire      1 %    reset  $end
$var wire      1 &    start  $end
$var wire     16 '    sram_ADDR [15:0] $end
$var wire     32 (    sram_DI [31:0] $end
$var wire      1 )    sram_EN  $end
$var wire      1 *    sram_WE  $end
$var wire     32 +    sram_DO [31:0] $end
$var wire      5 ,    opcode [4:0] $end
$var wire     32 -    alu0 [31:0] $end
$var wire     32 .    alu1 [31:0] $end
$var wire     32 /    aluout_wire [31:0] $end

$scope module ALU $end
$var wire      5 ,    opcode [4:0] $end
$var wire     32 -    alu0 [31:0] $end
$var wire     32 .    alu1 [31:0] $end
$var reg      32 0    aluout [31:0] $end
$upscope $end


$scope module CTL $end
$var wire      1 $    clk  $end
$var wire      1 %    reset  $end
$var wire      1 &    start  $end
$var wire     32 +    sram_DO [31:0] $end
$var wire     32 /    aluout_wire [31:0] $end
$var reg      16 1    sram_ADDR [15:0] $end
$var reg      32 2    sram_DI [31:0] $end
$var reg       1 3    sram_EN $end
$var reg       1 4    sram_WE $end
$var reg      32 5    alu0 [31:0] $end
$var reg      32 6    alu1 [31:0] $end
$var reg       5 7    opcode [4:0] $end
$var reg      32 8    r2 [31:0] $end
$var reg      32 9    r3 [31:0] $end
$var reg      32 :    r4 [31:0] $end
$var reg      32 ;    r5 [31:0] $end
$var reg      32 <    r6 [31:0] $end
$var reg      32 =    r7 [31:0] $end
$var reg      16 >    pc [15:0] $end
$var reg      32 ?    inst [31:0] $end
$var reg       3 @    dst [2:0] $end
$var reg       3 A    src0 [2:0] $end
$var reg       3 B    src1 [2:0] $end
$var reg      32 C    aluout [31:0] $end
$var reg      32 D    immediate [31:0] $end
$var reg      32 E    cycle_counter [31:0] $end
$var reg       3 F    ctl_state [2:0] $end
$var integer  32 G    verilog_trace_fp $end
$var integer  32 H    rc $end
$var reg      16 I    dma_source [15:0] $end
$var reg      16 J    dma_destination [15:0] $end
$var reg      16 K    dma_length [15:0] $end
$var reg       3 L    dma_state [2:0] $end
$var reg      32 M    dma_data [31:0] $end
$var reg       1 N    dma_operation $end
$upscope $end


$scope module SRAM $end
$var wire      1 $    clk  $end
$var wire     16 '    addr [15:0] $end
$var wire     32 (    di [31:0] $end
$var wire      1 )    en  $end
$var wire      1 *    we  $end
$var reg      32 O    do [31:0] $end
$upscope $end

$upscope $end

$upscope $end


$scope module SRAM_tb $end
$var reg       1 P    clk $end
$var reg      16 Q    sram_ADDR [15:0] $end
$var reg      32 R    sram_DI [31:0] $end
$var reg       1 S    sram_EN $end
$var reg       1 T    sram_WE $end
$var wire     32 U    sram_DO [31:0] $end
$var integer  32 V    i $end

$scope module SRAM $end
$var wire      1 W    clk  $end
$var wire     16 X    addr [15:0] $end
$var wire     32 Y    di [31:0] $end
$var wire      1 Z    en  $end
$var wire      1 [    we  $end
$var reg      32 \    do [31:0] $end
$upscope $end

$upscope $end

$enddefinitions $end
$dumpvars
1!
1"
0#
1$
1%
0&
b0 '
b0 (
0)
0*
bx +
b0 ,
b0 -
b0 .
b0 /
b0 0
b0 1
b0 2
03
04
b0 5
b0 6
b0 7
b0 8
b0 9
b0 :
b0 ;
b0 <
b0 =
b0 >
b0 ?
b0 @
b0 A
b0 B
b0 C
b0 D
b0 E
b0 F
b10000000000000000000000000000011 G
bx H
b0 I
b0 J
b0 K
b0 L
b0 M
0N
bx O
1P
bx Q
bx R
0S
xT
bx U
bx V
1W
bx X
bx Y
0Z
x[
bx \
$end
#5
0P
0!
0$
0W
#10
1P
1!
b0 V
1$
1W
b0 Q
b0 R
1S
1T
1[
1Z
b0 Y
b0 X
#15
0P
0!
0$
0W
#20
1P
1!
1$
1W
0T
0[
#25
0P
0!
0$
0W
#30
1P
1!
1$
1W
b0 \
b0 U
#31
b1 V
b1 Q
b1 R
1T
1[
b1 Y
b1 X
#35
0P
0!
0$
0W
#40
1P
1!
1$
1W
0T
0[
#45
0P
0!
0$
0W
#50
1P
1!
1$
1W
b1 \
b1 U
#51
b10 V
b10 Q
b10 R
1T
1[
b10 Y
b10 X
#55
0P
0!
0$
0W
#60
1P
1!
1$
1W
0T
0[
#65
0P
0!
0$
0W
#70
1P
1!
1$
1W
b10 \
b10 U
#71
b11 V
b11 Q
b11 R
1T
1[
b11 Y
b11 X
#75
0P
0!
0$
0W
#80
1P
1!
1$
1W
0T
0[
#85
0P
0!
0$
0W
#90
1P
1!
1$
1W
b11 \
b11 U
#91
b100 V
b100 Q
b100 R
1T
1[
b100 Y
b100 X
#95
0P
0!
0$
0W
#100
0"
1#
1P
1!
1$
1W
1&
0%
0T
b1 E
b1 F
13
1)
0[
#105
0P
0!
0$
0W
#110
1P
1!
1$
1W
b100010000000000000001111 O
b10 E
b10 F
b100 \
03
0)
b100 U
b100010000000000000001111 +
#111
b101 V
b101 Q
b101 R
1T
1[
b101 Y
b101 X
#115
0P
0!
0$
0W
#120
1P
1!
1$
1W
0T
b11 E
b100010000000000000001111 ?
b11 F
0[
#125
0P
0!
0$
0W
#130
1P
1!
1$
1W
b100 E
b10 @
b1 A
b1111 D
b100 F
b101 \
b101 U
#131
b110 V
b110 Q
b110 R
1T
1[
b110 Y
b110 X
#135
0P
0!
0$
0W
#140
1P
1!
1$
1W
0T
b101 E
b1111 5
b101 F
0[
b1111 -
b1111 0
b1111 /
#145
0P
0!
0$
0W
#150
1P
1!
1$
1W
b110 E
b1111 C
b110 F
b110 \
b110 U
#151
b111 V
b111 Q
b111 R
1T
1[
b111 Y
b111 X
#155
0P
0!
0$
0W
#160
1P
1!
1$
1W
0T
b111 E
b1 >
b1111 8
b1 F
b1 1
13
1)
b1 '
0[
#165
0P
0!
0$
0W
#170
1P
1!
1$
1W
b110010000000000000000001 O
b1000 E
b10 F
b111 \
b0 1
03
0)
b0 '
b111 U
b110010000000000000000001 +
#171
b1000 V
b1000 Q
b1000 R
1T
1[
b1000 Y
b1000 X
#175
0P
0!
0$
0W
#180
1P
1!
1$
1W
0T
b1001 E
b110010000000000000000001 ?
b11 F
0[
#185
0P
0!
0$
0W
#190
1P
1!
1$
1W
b1010 E
b11 @
b1 D
b100 F
b1000 \
b1000 U
#191
b1001 V
b1001 Q
b1001 R
1T
1[
b1001 Y
b1001 X
#195
0P
0!
0$
0W
#200
1P
1!
1$
1W
0T
b1011 E
b1 5
b101 F
0[
b1 -
b1 0
b1 /
#205
0P
0!
0$
0W
#210
1P
1!
1$
1W
b1100 E
b1 C
b110 F
b1001 \
b1001 U
#211
b1010 V
b1010 Q
b1010 R
1T
1[
b1010 Y
b1010 X
#215
0P
0!
0$
0W
#220
1P
1!
1$
1W
0T
b1101 E
b10 >
b1 9
b1 F
b10 1
13
1)
b10 '
0[
#225
0P
0!
0$
0W
#230
1P
1!
1$
1W
b1000010000000000000001000 O
b1110 E
b10 F
b1010 \
b0 1
03
0)
b0 '
b1010 U
b1000010000000000000001000 +
#231
b1011 V
b1011 Q
b1011 R
1T
1[
b1011 Y
b1011 X
#235
0P
0!
0$
0W
#240
1P
1!
1$
1W
0T
b1111 E
b1000010000000000000001000 ?
b11 F
0[
#245
0P
0!
0$
0W
#250
1P
1!
1$
1W
b10000 E
b100 @
b1000 D
b100 F
b1011 \
b1011 U
#251
b1100 V
b1100 Q
b1100 R
1T
1[
b1100 Y
b1100 X
#255
0P
0!
0$
0W
#260
1P
1!
1$
1W
0T
b10001 E
b1000 5
b101 F
0[
b1000 -
b1000 0
b1000 /
#265
0P
0!
0$
0W
#270
1P
1!
1$
1W
b10010 E
b1000 C
b110 F
b1100 \
b1100 U
#271
b1101 V
b1101 Q
b1101 R
1T
1[
b1101 Y
b1101 X
#275
0P
0!
0$
0W
#280
1P
1!
1$
1W
0T
b10011 E
b11 >
b1000 :
b1 F
b11 1
13
1)
b11 '
0[
#285
0P
0!
0$
0W
#290
1P
1!
1$
1W
b100100000111000000000000001011 O
b10100 E
b10 F
b1101 \
b0 1
03
0)
b0 '
b1101 U
b100100000111000000000000001011 +
#291
b1110 V
b1110 Q
b1110 R
1T
1[
b1110 Y
b1110 X
#295
0P
0!
0$
0W
#300
1P
1!
1$
1W
0T
b10101 E
b100100000111000000000000001011 ?
b11 F
0[
#305
0P
0!
0$
0W
#310
1P
1!
1$
1W
b10110 E
b10010 7
b0 @
b11 A
b100 B
b1011 D
b100 F
b1110 \
b1110 U
b10010 ,
b0 0
b0 /
#311
b1111 V
b1111 Q
b1111 R
1T
1[
b1111 Y
b1111 X
#315
0P
0!
0$
0W
#320
1P
1!
1$
1W
0T
b10111 E
b1 5
b1000 6
b101 F
0[
b1000 .
b1 -
#325
0P
0!
0$
0W
#330
1P
1!
1$
1W
b11000 E
b0 C
b110 F
b1111 \
b1111 U
#331
b10000 V
b10000 Q
b10000 R
1T
1[
b10000 Y
b10000 X
#335
0P
0!
0$
0W
#340
1P
1!
1$
1W
0T
b11001 E
b100 >
b1 F
b100 1
13
1)
b100 '
0[
#345
0P
0!
0$
0W
#350
1P
1!
1$
1W
b10001010000100000000000000000 O
b11010 E
b10 F
b10000 \
b0 1
03
0)
b0 '
b10000 U
b10001010000100000000000000000 +
#351
b10001 V
b10001 Q
b10001 R
1T
1[
b10001 Y
b10001 X
#355
0P
0!
0$
0W
#360
1P
1!
1$
1W
0T
b11011 E
b10001010000100000000000000000 ?
b11 F
0[
#365
0P
0!
0$
0W
#370
1P
1!
1$
1W
b11100 E
b1000 7
b101 @
b0 A
b10 B
b0 D
b100 F
b10001 \
b10001 U
b1000 ,
#371
b10010 V
b10010 Q
b10010 R
1T
1[
b10010 Y
b10010 X
#375
0P
0!
0$
0W
#380
1P
1!
1$
1W
0T
b11101 E
b0 5
b1111 6
b101 F
b1111 1
13
1)
b1111 '
0[
b1111 .
b0 -
#385
0P
0!
0$
0W
#390
1P
1!
1$
1W
b0 O
b11110 E
b110 F
b10010 \
b0 1
03
0)
b0 '
b10010 U
b0 +
#391
b10011 V
b10011 Q
b10011 R
1T
1[
b10011 Y
b10011 X
#395
0P
0!
0$
0W
#400
1P
1!
1$
1W
0T
b11111 E
b101 >
b1 F
b101 1
13
1)
b101 '
0[
#405
0P
0!
0$
0W
#410
1P
1!
1$
1W
b100100010000000000000001 O
b100000 E
b10 F
b10011 \
b0 1
03
0)
b0 '
b10011 U
b100100010000000000000001 +
#411
b10100 V
b10100 Q
b10100 R
1T
1[
b10100 Y
b10100 X
#415
0P
0!
0$
0W
#420
1P
1!
1$
1W
0T
b100001 E
b100100010000000000000001 ?
b11 F
0[
#425
0P
0!
0$
0W
#430
1P
1!
1$
1W
b100010 E
b0 7
b10 @
b10 A
b1 B
b1 D
b100 F
b10100 \
b10100 U
b0 ,
b1111 0
b1111 /
#431
b10101 V
b10101 Q
b10101 R
1T
1[
b10101 Y
b10101 X
#435
0P
0!
0$
0W
#440
1P
1!
1$
1W
0T
b100011 E
b1111 5
b1 6
b101 F
0[
b1 .
b1111 -
b10000 0
b10000 /
#445
0P
0!
0$
0W
#450
1P
1!
1$
1W
b100100 E
b10000 C
b110 F
b10101 \
b10101 U
#451
b10110 V
b10110 Q
b10110 R
1T
1[
b10110 Y
b10110 X
#455
0P
0!
0$
0W
#460
1P
1!
1$
1W
0T
b100101 E
b110 >
b10000 8
b1 F
b110 1
13
1)
b110 '
0[
#465
0P
0!
0$
0W
#470
1P
1!
1$
1W
b10001100000100000000000000000 O
b100110 E
b10 F
b10110 \
b0 1
03
0)
b0 '
b10110 U
b10001100000100000000000000000 +
#471
b10111 V
b10111 Q
b10111 R
1T
1[
b10111 Y
b10111 X
#475
0P
0!
0$
0W
#480
1P
1!
1$
1W
0T
b100111 E
b10001100000100000000000000000 ?
b11 F
0[
#485
0P
0!
0$
0W
#490
1P
1!
1$
1W
b101000 E
b1000 7
b110 @
b0 A
b10 B
b0 D
b100 F
b10111 \
b10111 U
b1000 ,
b0 0
b0 /
#491
b11000 V
b11000 Q
b11000 R
1T
1[
b11000 Y
b11000 X
#495
0P
0!
0$
0W
#500
1P
1!
1$
1W
0T
b101001 E
b0 5
b10000 6
b101 F
b10000 1
13
1)
b10000 '
0[
b10000 .
b0 -
#505
0P
0!
0$
0W
#510
1P
1!
1$
1W
b1 O
b101010 E
b110 F
b11000 \
b0 1
03
0)
b0 '
b11000 U
b1 +
#511
b11001 V
b11001 Q
b11001 R
1T
1[
b11001 Y
b11001 X
#515
0P
0!
0$
0W
#520
1P
1!
1$
1W
0T
b101011 E
b111 >
b1 <
b1 F
b111 1
13
1)
b111 '
0[
#525
0P
0!
0$
0W
#530
1P
1!
1$
1W
b1101101010000000000000000 O
b101100 E
b10 F
b11001 \
b0 1
03
0)
b0 '
b11001 U
b1101101010000000000000000 +
#531
b11010 V
b11010 Q
b11010 R
1T
1[
b11010 Y
b11010 X
#535
0P
0!
0$
0W
#540
1P
1!
1$
1W
0T
b101101 E
b1101101010000000000000000 ?
b11 F
0[
#545
0P
0!
0$
0W
#550
1P
1!
1$
1W
b101110 E
b0 7
b110 A
b101 B
b100 F
b11010 \
b11010 U
b0 ,
b10000 0
b10000 /
#551
b11011 V
b11011 Q
b11011 R
1T
1[
b11011 Y
b11011 X
#555
0P
0!
0$
0W
#560
1P
1!
1$
1W
0T
b101111 E
b1 5
b0 6
b101 F
0[
b0 .
b1 -
b1 0
b1 /
#565
0P
0!
0$
0W
#570
1P
1!
1$
1W
b110000 E
b1 C
b110 F
b11011 \
b11011 U
#571
b11100 V
b11100 Q
b11100 R
1T
1[
b11100 Y
b11100 X
#575
0P
0!
0$
0W
#580
1P
1!
1$
1W
0T
b110001 E
b1000 >
b1 F
b1000 1
13
1)
b1000 '
0[
#585
0P
0!
0$
0W
#590
1P
1!
1$
1W
b10010001100100000000000000000 O
b110010 E
b10 F
b11100 \
b0 1
03
0)
b0 '
b11100 U
b10010001100100000000000000000 +
#591
b11101 V
b11101 Q
b11101 R
1T
1[
b11101 Y
b11101 X
#595
0P
0!
0$
0W
#600
1P
1!
1$
1W
0T
b110011 E
b10010001100100000000000000000 ?
b11 F
0[
#605
0P
0!
0$
0W
#610
1P
1!
1$
1W
b110100 E
b1001 7
b0 @
b10 B
b100 F
b11101 \
b11101 U
b1001 ,
b0 0
b0 /
#611
b11110 V
b11110 Q
b11110 R
1T
1[
b11110 Y
b11110 X
#615
0P
0!
0$
0W
#620
1P
1!
1$
1W
0T
b110101 E
b10000 6
b101 F
0[
b10000 .
#625
0P
0!
0$
0W
#630
1P
1!
1$
1W
b110110 E
b110 F
b11110 \
b10000 1
b1 2
13
14
1*
1)
b1 (
b10000 '
b11110 U
#631
b11111 V
b11111 Q
b11111 R
1T
1[
b11111 Y
b11111 X
#635
0P
0!
0$
0W
#640
1P
1!
1$
1W
0T
b110111 E
b1001 >
b1 F
b0 1
b0 2
03
04
b1001 1
13
0*
b0 (
b1001 '
0[
#645
0P
0!
0$
0W
#650
1P
1!
1$
1W
b110110010000000000000001 O
b111000 E
b10 F
b11111 \
b0 1
03
0)
b0 '
b11111 U
b110110010000000000000001 +
#651
b100000 V
b100000 Q
b100000 R
1T
1[
b100000 Y
b100000 X
#655
0P
0!
0$
0W
#660
1P
1!
1$
1W
0T
b111001 E
b110110010000000000000001 ?
b11 F
0[
#665
0P
0!
0$
0W
#670
1P
1!
1$
1W
b111010 E
b0 7
b11 @
b11 A
b1 B
b1 D
b100 F
b100000 \
b100000 U
b0 ,
b10001 0
b10001 /
#671
b100001 V
b100001 Q
b100001 R
1T
1[
b100001 Y
b100001 X
#675
0P
0!
0$
0W
#680
1P
1!
1$
1W
0T
b111011 E
b1 6
b101 F
0[
b1 .
b10 0
b10 /
#685
0P
0!
0$
0W
#690
1P
1!
1$
1W
b111100 E
b10 C
b110 F
b100001 \
b100001 U
#691
b100010 V
b100010 Q
b100010 R
1T
1[
b100010 Y
b100010 X
#695
0P
0!
0$
0W
#700
1P
1!
1$
1W
0T
b111101 E
b1010 >
b10 9
b1 F
b1010 1
13
1)
b1010 '
0[
#705
0P
0!
0$
0W
#710
1P
1!
1$
1W
b100100000000000000000000000011 O
b111110 E
b10 F
b100010 \
b0 1
03
0)
b0 '
b100010 U
b100100000000000000000000000011 +
#711
b100011 V
b100011 Q
b100011 R
1T
1[
b100011 Y
b100011 X
#715
0P
0!
0$
0W
#720
1P
1!
1$
1W
0T
b111111 E
b100100000000000000000000000011 ?
b11 F
0[
#725
0P
0!
0$
0W
#730
1P
1!
1$
1W
b1000000 E
b10010 7
b0 @
b0 A
b0 B
b11 D
b100 F
b100011 \
b100011 U
b10010 ,
b1 0
b1 /
#731
b100100 V
b100100 Q
b100100 R
1T
1[
b100100 Y
b100100 X
#735
0P
0!
0$
0W
#740
1P
1!
1$
1W
0T
b1000001 E
b0 5
b0 6
b101 F
0[
b0 .
b0 -
#745
0P
0!
0$
0W
#750
1P
1!
1$
1W
b1000010 E
b1 C
b110 F
b100100 \
b100100 U
#751
b100101 V
b100101 Q
b100101 R
1T
1[
b100101 Y
b100101 X
#755
0P
0!
0$
0W
#760
1P
1!
1$
1W
0T
b1000011 E
b11 >
b1010 =
b1 F
b11 1
13
1)
b11 '
0[
#765
0P
0!
0$
0W
#770
1P
1!
1$
1W
b100100000111000000000000001011 O
b1000100 E
b10 F
b100101 \
b0 1
03
0)
b0 '
b100101 U
b100100000111000000000000001011 +
#771
b100110 V
b100110 Q
b100110 R
1T
1[
b100110 Y
b100110 X
#775
0P
0!
0$
0W
#780
1P
1!
1$
1W
0T
b1000101 E
b100100000111000000000000001011 ?
b11 F
0[
#785
0P
0!
0$
0W
#790
1P
1!
1$
1W
b1000110 E
b11 A
b100 B
b1011 D
b100 F
b100110 \
b100110 U
#791
b100111 V
b100111 Q
b100111 R
1T
1[
b100111 Y
b100111 X
#795
0P
0!
0$
0W
#800
1P
1!
1$
1W
0T
b1000111 E
b10 5
b1000 6
b101 F
0[
b1000 .
b10 -
b0 0
b0 /
#805
0P
0!
0$
0W
#810
1P
1!
1$
1W
b1001000 E
b0 C
b110 F
b100111 \
b100111 U
#811
b101000 V
b101000 Q
b101000 R
1T
1[
b101000 Y
b101000 X
#815
0P
0!
0$
0W
#820
1P
1!
1$
1W
0T
b1001001 E
b100 >
b1 F
b100 1
13
1)
b100 '
0[
#825
0P
0!
0$
0W
#830
1P
1!
1$
1W
b10001010000100000000000000000 O
b1001010 E
b10 F
b101000 \
b0 1
03
0)
b0 '
b101000 U
b10001010000100000000000000000 +
#831
b101001 V
b101001 Q
b101001 R
1T
1[
b101001 Y
b101001 X
#835
0P
0!
0$
0W
#840
1P
1!
1$
1W
0T
b1001011 E
b10001010000100000000000000000 ?
b11 F
0[
#845
0P
0!
0$
0W
#850
1P
1!
1$
1W
b1001100 E
b1000 7
b101 @
b0 A
b10 B
b0 D
b100 F
b101001 \
b101001 U
b1000 ,
#851
b101010 V
b101010 Q
b101010 R
1T
1[
b101010 Y
b101010 X
#855
0P
0!
0$
0W
#860
1P
1!
1$
1W
0T
b1001101 E
b0 5
b10000 6
b101 F
b10000 1
13
1)
b10000 '
0[
b10000 .
b0 -
#865
0P
0!
0$
0W
#870
1P
1!
1$
1W
b1 O
b1001110 E
b110 F
b101010 \
b0 1
03
0)
b0 '
b101010 U
b1 +
#871
b101011 V
b101011 Q
b101011 R
1T
1[
b101011 Y
b101011 X
#875
0P
0!
0$
0W
#880
1P
1!
1$
1W
0T
b1001111 E
b101 >
b1 ;
b1 F
b101 1
13
1)
b101 '
0[
#885
0P
0!
0$
0W
#890
1P
1!
1$
1W
b100100010000000000000001 O
b1010000 E
b10 F
b101011 \
b0 1
03
0)
b0 '
b101011 U
b100100010000000000000001 +
#891
b101100 V
b101100 Q
b101100 R
1T
1[
b101100 Y
b101100 X
#895
0P
0!
0$
0W
#900
1P
1!
1$
1W
0T
b1010001 E
b100100010000000000000001 ?
b11 F
0[
#905
0P
0!
0$
0W
#910
1P
1!
1$
1W
b1010010 E
b0 7
b10 @
b10 A
b1 B
b1 D
b100 F
b101100 \
b101100 U
b0 ,
b10000 0
b10000 /
#911
b101101 V
b101101 Q
b101101 R
1T
1[
b101101 Y
b101101 X
#915
0P
0!
0$
0W
#920
1P
1!
1$
1W
0T
b1010011 E
b10000 5
b1 6
b101 F
0[
b1 .
b10000 -
b10001 0
b10001 /
#925
0P
0!
0$
0W
#930
1P
1!
1$
1W
b1010100 E
b10001 C
b110 F
b101101 \
b101101 U
#931
b101110 V
b101110 Q
b101110 R
1T
1[
b101110 Y
b101110 X
#935
0P
0!
0$
0W
#940
1P
1!
1$
1W
0T
b1010101 E
b110 >
b10001 8
b1 F
b110 1
13
1)
b110 '
0[
#945
0P
0!
0$
0W
#950
1P
1!
1$
1W
b10001100000100000000000000000 O
b1010110 E
b10 F
b101110 \
b0 1
03
0)
b0 '
b101110 U
b10001100000100000000000000000 +
#951
b101111 V
b101111 Q
b101111 R
1T
1[
b101111 Y
b101111 X
#955
0P
0!
0$
0W
#960
1P
1!
1$
1W
0T
b1010111 E
b10001100000100000000000000000 ?
b11 F
0[
#965
0P
0!
0$
0W
#970
1P
1!
1$
1W
b1011000 E
b1000 7
b110 @
b0 A
b10 B
b0 D
b100 F
b101111 \
b101111 U
b1000 ,
b0 0
b0 /
#971
b110000 V
b110000 Q
b110000 R
1T
1[
b110000 Y
b110000 X
#975
0P
0!
0$
0W
#980
1P
1!
1$
1W
0T
b1011001 E
b0 5
b10001 6
b101 F
b10001 1
13
1)
b10001 '
0[
b10001 .
b0 -
#985
0P
0!
0$
0W
#990
1P
1!
1$
1W
b10 O
b1011010 E
b110 F
b110000 \
b0 1
03
0)
b0 '
b110000 U
b10 +
#991
b110001 V
b110001 Q
b110001 R
1T
1[
b110001 Y
b110001 X
#995
0P
0!
0$
0W
#1000
1P
1!
1$
1W
0T
b1011011 E
b111 >
b10 <
b1 F
b111 1
13
1)
b111 '
0[
#1005
0P
0!
0$
0W
#1010
1P
1!
1$
1W
b1101101010000000000000000 O
b1011100 E
b10 F
b110001 \
b0 1
03
0)
b0 '
b110001 U
b1101101010000000000000000 +
#1011
b110010 V
b110010 Q
b110010 R
1T
1[
b110010 Y
b110010 X
#1015
0P
0!
0$
0W
#1020
1P
1!
1$
1W
0T
b1011101 E
b1101101010000000000000000 ?
b11 F
0[
#1025
0P
0!
0$
0W
#1030
1P
1!
1$
1W
b1011110 E
b0 7
b110 A
b101 B
b100 F
b110010 \
b110010 U
b0 ,
b10001 0
b10001 /
#1031
b110011 V
b110011 Q
b110011 R
1T
1[
b110011 Y
b110011 X
#1035
0P
0!
0$
0W
#1040
1P
1!
1$
1W
0T
b1011111 E
b10 5
b1 6
b101 F
0[
b1 .
b10 -
b11 0
b11 /
#1045
0P
0!
0$
0W
#1050
1P
1!
1$
1W
b1100000 E
b11 C
b110 F
b110011 \
b110011 U
#1051
b110100 V
b110100 Q
b110100 R
1T
1[
b110100 Y
b110100 X
#1055
0P
0!
0$
0W
#1060
1P
1!
1$
1W
0T
b1100001 E
b1000 >
b11 <
b1 F
b1000 1
13
1)
b1000 '
0[
#1065
0P
0!
0$
0W
#1070
1P
1!
1$
1W
b10010001100100000000000000000 O
b1100010 E
b10 F
b110100 \
b0 1
03
0)
b0 '
b110100 U
b10010001100100000000000000000 +
#1071
b110101 V
b110101 Q
b110101 R
1T
1[
b110101 Y
b110101 X
#1075
0P
0!
0$
0W
#1080
1P
1!
1$
1W
0T
b1100011 E
b10010001100100000000000000000 ?
b11 F
0[
#1085
0P
0!
0$
0W
#1090
1P
1!
1$
1W
b1100100 E
b1001 7
b0 @
b10 B
b100 F
b110101 \
b110101 U
b1001 ,
b0 0
b0 /
#1091
b110110 V
b110110 Q
b110110 R
1T
1[
b110110 Y
b110110 X
#1095
0P
0!
0$
0W
#1100
1P
1!
1$
1W
0T
b1100101 E
b11 5
b10001 6
b101 F
0[
b10001 .
b11 -
#1105
0P
0!
0$
0W
#1110
1P
1!
1$
1W
b1100110 E
b110 F
b110110 \
b10001 1
b11 2
13
14
1*
1)
b11 (
b10001 '
b110110 U
#1111
b110111 V
b110111 Q
b110111 R
1T
1[
b110111 Y
b110111 X
#1115
0P
0!
0$
0W
#1120
1P
1!
1$
1W
0T
b1100111 E
b1001 >
b1 F
b0 1
b0 2
03
04
b1001 1
13
0*
b0 (
b1001 '
0[
#1125
0P
0!
0$
0W
#1130
1P
1!
1$
1W
b110110010000000000000001 O
b1101000 E
b10 F
b110111 \
b0 1
03
0)
b0 '
b110111 U
b110110010000000000000001 +
#1131
b111000 V
b111000 Q
b111000 R
1T
1[
b111000 Y
b111000 X
#1135
0P
0!
0$
0W
#1140
1P
1!
1$
1W
0T
b1101001 E
b110110010000000000000001 ?
b11 F
0[
#1145
0P
0!
0$
0W
#1150
1P
1!
1$
1W
b1101010 E
b0 7
b11 @
b11 A
b1 B
b1 D
b100 F
b111000 \
b111000 U
b0 ,
b10100 0
b10100 /
#1151
b111001 V
b111001 Q
b111001 R
1T
1[
b111001 Y
b111001 X
#1155
0P
0!
0$
0W
#1160
1P
1!
1$
1W
0T
b1101011 E
b10 5
b1 6
b101 F
0[
b1 .
b10 -
b11 0
b11 /
#1165
0P
0!
0$
0W
#1170
1P
1!
1$
1W
b1101100 E
b110 F
b111001 \
b111001 U
#1171
b111010 V
b111010 Q
b111010 R
1T
1[
b111010 Y
b111010 X
#1175
0P
0!
0$
0W
#1180
1P
1!
1$
1W
0T
b1101101 E
b1010 >
b11 9
b1 F
b1010 1
13
1)
b1010 '
0[
#1185
0P
0!
0$
0W
#1190
1P
1!
1$
1W
b100100000000000000000000000011 O
b1101110 E
b10 F
b111010 \
b0 1
03
0)
b0 '
b111010 U
b100100000000000000000000000011 +
#1191
b111011 V
b111011 Q
b111011 R
1T
1[
b111011 Y
b111011 X
#1195
0P
0!
0$
0W
#1200
1P
1!
1$
1W
0T
b1101111 E
b100100000000000000000000000011 ?
b11 F
0[
#1205
0P
0!
0$
0W
#1210
1P
1!
1$
1W
b1110000 E
b10010 7
b0 @
b0 A
b0 B
b11 D
b100 F
b111011 \
b111011 U
b10010 ,
b0 0
b0 /
#1211
b111100 V
b111100 Q
b111100 R
1T
1[
b111100 Y
b111100 X
#1215
0P
0!
0$
0W
#1220
1P
1!
1$
1W
0T
b1110001 E
b0 5
b0 6
b101 F
0[
b0 .
b0 -
b1 0
b1 /
#1225
0P
0!
0$
0W
#1230
1P
1!
1$
1W
b1110010 E
b1 C
b110 F
b111100 \
b111100 U
#1231
b111101 V
b111101 Q
b111101 R
1T
1[
b111101 Y
b111101 X
#1235
0P
0!
0$
0W
#1240
1P
1!
1$
1W
0T
b1110011 E
b11 >
b1 F
b11 1
13
1)
b11 '
0[
#1245
0P
0!
0$
0W
#1250
1P
1!
1$
1W
b100100000111000000000000001011 O
b1110100 E
b10 F
b111101 \
b0 1
03
0)
b0 '
b111101 U
b100100000111000000000000001011 +
#1251
b111110 V
b111110 Q
b111110 R
1T
1[
b111110 Y
b111110 X
#1255
0P
0!
0$
0W
#1260
1P
1!
1$
1W
0T
b1110101 E
b100100000111000000000000001011 ?
b11 F
0[
#1265
0P
0!
0$
0W
#1270
1P
1!
1$
1W
b1110110 E
b11 A
b100 B
b1011 D
b100 F
b111110 \
b111110 U
#1271
b111111 V
b111111 Q
b111111 R
1T
1[
b111111 Y
b111111 X
#1275
0P
0!
0$
0W
#1280
1P
1!
1$
1W
0T
b1110111 E
b11 5
b1000 6
b101 F
0[
b1000 .
b11 -
b0 0
b0 /
#1285
0P
0!
0$
0W
#1290
1P
1!
1$
1W
b1111000 E
b0 C
b110 F
b111111 \
b111111 U
#1291
b1000000 V
b1000000 Q
b1000000 R
1T
1[
b1000000 Y
b1000000 X
#1295
0P
0!
0$
0W
#1300
1P
1!
1$
1W
0T
b1111001 E
b100 >
b1 F
b100 1
13
1)
b100 '
0[
#1305
0P
0!
0$
0W
#1310
1P
1!
1$
1W
b10001010000100000000000000000 O
b1111010 E
b10 F
b1000000 \
b0 1
03
0)
b0 '
b1000000 U
b10001010000100000000000000000 +
#1311
b1000001 V
b1000001 Q
b1000001 R
1T
1[
b1000001 Y
b1000001 X
#1315
0P
0!
0$
0W
#1320
1P
1!
1$
1W
0T
b1111011 E
b10001010000100000000000000000 ?
b11 F
0[
#1325
0P
0!
0$
0W
#1330
1P
1!
1$
1W
b1111100 E
b1000 7
b101 @
b0 A
b10 B
b0 D
b100 F
b1000001 \
b1000001 U
b1000 ,
#1331
b1000010 V
b1000010 Q
b1000010 R
1T
1[
b1000010 Y
b1000010 X
#1335
0P
0!
0$
0W
#1340
1P
1!
1$
1W
0T
b1111101 E
b0 5
b10001 6
b101 F
b10001 1
13
1)
b10001 '
0[
b10001 .
b0 -
#1345
0P
0!
0$
0W
#1350
1P
1!
1$
1W
b11 O
b1111110 E
b110 F
b1000010 \
b0 1
03
0)
b0 '
b1000010 U
b11 +
#1351
b1000011 V
b1000011 Q
b1000011 R
1T
1[
b1000011 Y
b1000011 X
#1355
0P
0!
0$
0W
#1360
1P
1!
1$
1W
0T
b1111111 E
b101 >
b11 ;
b1 F
b101 1
13
1)
b101 '
0[
#1365
0P
0!
0$
0W
#1370
1P
1!
1$
1W
b100100010000000000000001 O
b10000000 E
b10 F
b1000011 \
b0 1
03
0)
b0 '
b1000011 U
b100100010000000000000001 +
#1371
b1000100 V
b1000100 Q
b1000100 R
1T
1[
b1000100 Y
b1000100 X
#1375
0P
0!
0$
0W
#1380
1P
1!
1$
1W
0T
b10000001 E
b100100010000000000000001 ?
b11 F
0[
#1385
0P
0!
0$
0W
